{
  "current": {
    "color_text": "#3d4246",
    "color_body_text": "#69727b",
    "color_sale_text": "#557b97",
    "color_button": "#557b97",
    "color_button_text": "#fff",
    "color_small_button_text_border": "#3d4246",
    "color_text_field_text": "#000",
    "color_text_field_border": "#949494",
    "color_text_field": "#fff",
    "color_image_overlay_text": "#fff",
    "color_image_overlay": "#3d4246",
    "image_overlay_opacity": 40,
    "color_borders": "#e8e8e8",
    "color_body_bg": "#fff",
    "logo": "shopify:\/\/shop_images\/ngx_logo.png",
    "instagramUrl": "https:\/\/www.instagram.com\/byronbaycookies\/",
    "facebookUrl": "https:\/\/www.facebook.com\/byronbaycookies\/",
    "instagram": "457778913.1677ed0.72ef866f7e904dfbb3e97fca0b133031",
    "share_image": "",
    "share_facebook": true,
    "share_twitter": true,
    "share_pinterest": true,
    "social_twitter_link": "",
    "social_facebook_link": "https:\/\/www.facebook.com\/byronbaycookies\/",
    "social_pinterest_link": "",
    "social_instagram_link": "https:\/\/www.instagram.com\/byronbaycookies\/",
    "social_tumblr_link": "",
    "social_snapchat_link": "",
    "social_youtube_link": "https:\/\/www.youtube.com\/user\/ByronBayCookieCo",
    "social_vimeo_link": "",
    "favicon": "",
    "megamenu1": "",
    "megamenu2": "",
    "megamenu3": "",
    "megamenu4": "",
    "checkout_header_image": "",
    "checkout_logo_image": "",
    "checkout_logo_position": "left",
    "checkout_logo_size": "large",
    "checkout_body_background_image": "",
    "checkout_body_background_color": "#fff",
    "checkout_input_background_color_mode": "white",
    "checkout_sidebar_background_image": "",
    "checkout_sidebar_background_color": "#fafafa",
    "checkout_heading_font": "-apple-system, BlinkMacSystemFont, 'Segoe UI', Roboto, Helvetica, Arial, sans-serif, 'Apple Color Emoji', 'Segoe UI Emoji', 'Segoe UI Symbol'",
    "checkout_body_font": "-apple-system, BlinkMacSystemFont, 'Segoe UI', Roboto, Helvetica, Arial, sans-serif, 'Apple Color Emoji', 'Segoe UI Emoji', 'Segoe UI Symbol'",
    "checkout_accent_color": "#000000",
    "checkout_button_color": "#000000",
    "checkout_error_color": "#e32c2b",
    "type_header_font": "work_sans_n6",
    "type_header_base_size": 26,
    "type_base_font": "work_sans_n4",
    "type_base_size": 16,
    "type_bold_product_titles": false,
    "vendorImage1": "shopify:\/\/shop_images\/BBC_NoLady_Logo_TOP_HEADER.png",
    "vendorImage2": "shopify:\/\/shop_images\/Falwasser_logo_170edd5c-cc62-4c6f-ae62-4db5d33df6f5.png",
    "vendorImage3": "shopify:\/\/shop_images\/LUKEN_and_MAY_BLACK.png",
    "vendorImage4": "",
    "vendorText4": "",
    "vendorImage5": "",
    "vendorText5": "",
    "sections": {
      "header": {
        "type": "header",
        "settings": {
          "main_linklist": "main-menu",
          "mobile_linklist": "main-menu"
        }
      },
      "footer": {
        "type": "footer",
        "blocks": {
          "1570628545131": {
            "type": "link_list",
            "settings": {
              "title": "Shop",
              "menu": "footer"
            }
          },
          "1580539560689": {
            "type": "link_list",
            "settings": {
              "title": "Customer Care",
              "menu": "footer-more-info"
            }
          },
          "1570628556952": {
            "type": "newsletter",
            "settings": {
              "title": "Newsletter"
            }
          }
        },
        "block_order": [
          "1570628545131",
          "1580539560689",
          "1570628556952"
        ],
        "settings": {}
      },
      "ribbon": {
        "type": "ribbon",
        "blocks": {
          "1570606344663": {
            "type": "icons",
            "settings": {
              "image": "",
              "text": "Byron Bay Cookies",
              "link": "shopify:\/\/collections\/byron-bay-cookies"
            }
          },
          "1571983984748": {
            "type": "icons",
            "settings": {
              "image": "",
              "text": "Luken & May",
              "link": "shopify:\/\/collections\/luken-and-may"
            }
          },
          "1571985697629": {
            "type": "icons",
            "settings": {
              "image": "",
              "text": "Falwasser",
              "link": "shopify:\/\/collections\/falwasser"
            }
          }
        },
        "block_order": [
          "1570606344663",
          "1571983984748",
          "1571985697629"
        ],
        "settings": {
          "ribbon": true,
          "homepage": false,
          "text": "Free Domestic Delivery - Orders Over $50",
          "colorBackground": "#000000",
          "colorText": "#ffffff"
        }
      },
      "collection-template": {
        "type": "collection-template",
        "settings": {}
      },
      "cart-template": {
        "type": "cart-template",
        "settings": {
          "cart_notes_enable": false
        }
      },
      "product-template": {
        "type": "product-template",
        "settings": {}
      },
      "content-header": {
        "type": "content-header",
        "blocks": {
          "1572177982062": {
            "type": "hero",
            "settings": {
              "image": "",
              "imageMobile": "",
              "title": "Test",
              "link": ""
            }
          },
          "1572178943224": {
            "type": "hero",
            "settings": {
              "image": "",
              "imageMobile": "",
              "title": "Test",
              "link": ""
            }
          },
          "1572178952089": {
            "type": "hero",
            "settings": {
              "image": "",
              "imageMobile": "",
              "title": "Test",
              "link": ""
            }
          }
        },
        "block_order": [
          "1572177982062",
          "1572178943224",
          "1572178952089"
        ],
        "settings": {
          "logo": "",
          "logoMobile": "",
          "image": "",
          "imageMobile": "",
          "youtube": "",
          "videoMp4": "",
          "videoWebm": "",
          "autoplay": false,
          "mute": false,
          "controls": false,
          "title": "Test",
          "content": "Test",
          "link": "shopify:\/\/products\/anzac-3"
        }
      },
      "content-hero": {
        "type": "content-hero",
        "blocks": {
          "1572179244933": {
            "type": "hero",
            "settings": {
              "image": "",
              "imageMobile": "",
              "title": "Title 1",
              "content": "Test",
              "link": "shopify:\/\/products\/product-1"
            }
          },
          "1572179253236": {
            "type": "hero",
            "settings": {
              "image": "",
              "imageMobile": "",
              "title": "Title 2",
              "content": "Test",
              "link": "shopify:\/\/products\/product-2"
            }
          },
          "1572179258656": {
            "type": "hero",
            "settings": {
              "image": "",
              "imageMobile": "",
              "title": "Title 3",
              "content": "Test",
              "link": "shopify:\/\/products\/product-3"
            }
          }
        },
        "block_order": [
          "1572179244933",
          "1572179253236",
          "1572179258656"
        ],
        "settings": {
          "colorText": "#ffffff"
        }
      },
      "collection-slideshow": {
        "type": "collection-slideshow",
        "settings": {
          "enabled": true,
          "title": "Featured collection",
          "collection": "",
          "linkText": "Go to collection",
          "link": ""
        }
      },
      "icon-slideshow": {
        "type": "icon-slideshow",
        "settings": {
          "title": ""
        }
      },
      "content-hero-page": {
        "type": "content-hero-page",
        "blocks": {
          "1578918103096": {
            "type": "hero",
            "settings": {
              "image": "",
              "imageMobile": "",
              "title": "Title one",
              "content": "Content one",
              "linkTitle": "Product 1",
              "link": "shopify:\/\/products\/product-1"
            }
          },
          "1578918148414": {
            "type": "hero",
            "settings": {
              "image": "",
              "imageMobile": "",
              "title": "Title two",
              "content": "Content two",
              "linkTitle": "Product Two",
              "link": "shopify:\/\/products\/product-2"
            }
          },
          "1578918187102": {
            "type": "hero",
            "settings": {
              "image": "",
              "imageMobile": "",
              "title": "Title 3",
              "content": "Content 3",
              "linkTitle": "Link Title 3",
              "link": "shopify:\/\/products\/product-3"
            }
          }
        },
        "block_order": [
          "1578918103096",
          "1578918148414",
          "1578918187102"
        ],
        "settings": {
          "enabled": true,
          "image": "",
          "imageMobile": ""
        }
      },
      "usps": {
        "type": "usps",
        "settings": {
          "enabled": true,
          "title": ""
        }
      },
      "instagram": {
        "type": "instagram",
        "settings": {
          "title": "Instagram",
          "key": ""
        }
      },
      "featured-content": {
        "type": "featured-content",
        "settings": {
          "enabled": true,
          "title": "Did you know?",
          "content": "I WAS BORN AND BRED IN AUSTRALIA FROM AN ALL NATURAL FAMILY. I LIKE PARTIES, GATHERINGS AND LATE NIGHT RENDEZVOUS. I’M ONE OF A KIND: I MAY BE THIN, BUT I’M STRONG. I’M DOWN TO EARTH BUT I HAVE EXTREMELY PRESTIGIOUS TASTE. I LOVE CHEESE, DIPS AND PATES, BUT  I ALSO TASTE GREAT NAKED. I’M LOOKING FOR SOMEONE WHO HAS AN EXCEPTIONAL PALATE AND DESIRES THE BEST OUT OF LIFE. LOVING ME IS A GUARANTEE."
        }
      },
      "video": {
        "type": "video",
        "settings": {
          "enabled": false,
          "youtube": "",
          "videoMp4": "",
          "videoWebm": "",
          "autoplay": false,
          "mute": false,
          "controls": false
        }
      },
      "map": {
        "type": "map",
        "blocks": {
          "1574079290768": {
            "type": "marker",
            "settings": {
              "image": "",
              "title": "Byron Bay",
              "lat": "-28.63436",
              "lng": "153.58121",
              "link": ""
            }
          },
          "1574079892179": {
            "type": "marker",
            "settings": {
              "image": "",
              "title": "Retail Store",
              "lat": "-28.641480",
              "lng": "153.612460",
              "link": ""
            }
          }
        },
        "block_order": [
          "1574079290768",
          "1574079892179"
        ],
        "settings": {
          "enabled": false,
          "zoom": "",
          "lat": "",
          "lng": ""
        }
      },
      "blog-template": {
        "type": "blog-template",
        "settings": {
          "layout": "grid",
          "blog_show_author": true,
          "blog_show_date": true
        }
      },
      "article-template": {
        "type": "article-template",
        "settings": {
          "blog_show_author": true,
          "blog_show_date": true,
          "show_share_buttons": true
        }
      },
      "1575878168650": {
        "type": "usps",
        "blocks": {
          "1575878168650-0": {
            "type": "usps",
            "settings": {
              "image": "shopify:\/\/shop_images\/pin.png",
              "title": "Store Locator",
              "content": "Find gear at a stockist near you"
            }
          },
          "1575878168650-1": {
            "type": "usps",
            "settings": {
              "image": "shopify:\/\/shop_images\/delivery.png",
              "title": "Free Shipping",
              "content": "Free express shipping on orders over $79"
            }
          },
          "1575878168650-2": {
            "type": "usps",
            "settings": {
              "image": "shopify:\/\/shop_images\/unidays.jpg",
              "title": "Unidays",
              "content": "Students get 15% off with UNIDAYS discount"
            }
          },
          "1578307900987": {
            "type": "usps",
            "settings": {
              "image": "shopify:\/\/shop_images\/afterpay.jpeg",
              "title": "Afterpay",
              "content": "Shop now, pay later with Afterpay"
            }
          }
        },
        "block_order": [
          "1575878168650-0",
          "1575878168650-1",
          "1575878168650-2",
          "1578307900987"
        ],
        "settings": {
          "enabled": true,
          "title": ""
        }
      },
      "collection-list": {
        "type": "collection-list",
        "blocks": {
          "1578728503224": {
            "type": "featured_collection",
            "settings": {
              "collection": "category-one",
              "desktopImage": "",
              "mobileImage": ""
            }
          },
          "1578728477617": {
            "type": "featured_collection",
            "settings": {
              "collection": "category-two",
              "desktopImage": "",
              "mobileImage": ""
            }
          },
          "1579258022462": {
            "type": "featured_collection",
            "settings": {
              "collection": "",
              "desktopImage": "",
              "mobileImage": ""
            }
          },
          "1579258010509": {
            "type": "featured_collection",
            "settings": {
              "collection": "",
              "desktopImage": "",
              "mobileImage": ""
            }
          },
          "1579258029897": {
            "type": "featured_collection",
            "settings": {
              "collection": "category-five",
              "desktopImage": "",
              "mobileImage": ""
            }
          },
          "1579258051570": {
            "type": "featured_collection",
            "settings": {
              "collection": "category-six",
              "desktopImage": "",
              "mobileImage": ""
            }
          }
        },
        "block_order": [
          "1578728503224",
          "1578728477617",
          "1579258022462",
          "1579258010509",
          "1579258029897",
          "1579258051570"
        ],
        "settings": {
          "title": "New Arrivals",
          "displayImages": true
        }
      },
      "collection": {
        "type": "collection",
        "settings": {
          "title": "New Arrivals",
          "collection": "category-two"
        }
      },
      "twocolumn-hero": {
        "type": "twocolumn-hero",
        "settings": {
          "enabled": true,
          "imageLeft": "",
          "alignmentLeft": "center",
          "titleLeft": "Exciting collection one",
          "linkLeft": "collections\/category-one",
          "imageRight": "",
          "alignmentRight": "center",
          "titleRight": "Summery collection",
          "linkRight": "collections\/category-two"
        }
      },
      "hero": {
        "type": "hero",
        "settings": {
          "image": "",
          "title": "New Space Collections",
          "heading_color": "#ffffff",
          "link": "",
          "actionable": true,
          "text": "",
          "text_size": "medium",
          "button_label": "Shop now!",
          "button_color": "",
          "button_enabled": false
        }
      },
      "link-list": {
        "type": "link-list",
        "blocks": {
          "1579525358081": {
            "type": "featured_link",
            "settings": {
              "linkTitle": "Category 1",
              "link": "shopify:\/\/collections\/category-one"
            }
          },
          "1579525373973": {
            "type": "featured_link",
            "settings": {
              "linkTitle": "Category 2",
              "link": "shopify:\/\/collections\/category-two"
            }
          },
          "1579601452914": {
            "type": "featured_link",
            "settings": {
              "linkTitle": "Category 3",
              "link": "shopify:\/\/collections\/category-3"
            }
          },
          "1579601454200": {
            "type": "featured_link",
            "settings": {
              "linkTitle": "Category 4",
              "link": "shopify:\/\/collections\/category-4"
            }
          },
          "1579601454771": {
            "type": "featured_link",
            "settings": {
              "linkTitle": "Category 5",
              "link": "shopify:\/\/collections\/category-five"
            }
          },
          "1579601455556": {
            "type": "featured_link",
            "settings": {
              "linkTitle": "Category 6",
              "link": "shopify:\/\/collections\/category-six"
            }
          }
        },
        "block_order": [
          "1579525358081",
          "1579525373973",
          "1579601452914",
          "1579601454200",
          "1579601454771",
          "1579601455556"
        ],
        "settings": {
          "title": "Link list"
        }
      },
      "ribbon-block": {
        "type": "ribbon-block",
        "settings": {
          "ribbon": true,
          "homepage": false,
          "text": "Keep cool fool",
          "colorBackground": "#949494",
          "colorText": "#fff"
        }
      },
      "menu": {
        "type": "menu",
        "settings": {
          "menu": "footer-more-info",
          "title": "More information"
        }
      },
      "1583064122454": {
        "type": "hero",
        "settings": {
          "image": "shopify:\/\/shop_images\/mountain-magic-hour.jpg",
          "title": "Exciting slogan",
          "heading_color": "#ffffff",
          "link": "shopify:\/\/collections\/category-one",
          "actionable": true,
          "text": "",
          "text_size": "medium",
          "button_label": "Shop now",
          "button_color": "#000000",
          "button_enabled": true
        }
      },
      "1583064205854": {
        "type": "collection-list",
        "blocks": {
          "1583064205854-0": {
            "type": "featured_collection",
            "settings": {
              "collection": "category-one",
              "desktopImage": "",
              "mobileImage": ""
            }
          },
          "1583064205854-1": {
            "type": "featured_collection",
            "settings": {
              "collection": "category-two",
              "desktopImage": "",
              "mobileImage": ""
            }
          },
          "1583064205854-2": {
            "type": "featured_collection",
            "settings": {
              "collection": "category-three",
              "desktopImage": "",
              "mobileImage": ""
            }
          },
          "1583064214461": {
            "type": "featured_collection",
            "settings": {
              "collection": "category-four",
              "desktopImage": "",
              "mobileImage": ""
            }
          },
          "1583064218506": {
            "type": "featured_collection",
            "settings": {
              "collection": "category-five",
              "desktopImage": "",
              "mobileImage": ""
            }
          },
          "1583064219752": {
            "type": "featured_collection",
            "settings": {
              "collection": "category-six",
              "desktopImage": "",
              "mobileImage": ""
            }
          }
        },
        "block_order": [
          "1583064205854-0",
          "1583064205854-1",
          "1583064205854-2",
          "1583064214461",
          "1583064218506",
          "1583064219752"
        ],
        "settings": {
          "title": "Collection list",
          "displayImages": false
        }
      },
      "1583065709961": {
        "type": "collection",
        "settings": {
          "title": "Featured Collection",
          "collection": "shoes"
        }
      }
    },
    "content_for_index": [
      "1583064122454",
      "1583064205854",
      "1583065709961",
      "1575878168650"
    ]
  },
  "presets": {
    "Default": {
      "color_text": "#3d4246",
      "color_body_text": "#69727b",
      "color_sale_text": "#557B97",
      "color_borders": "#e8e9eb",
      "color_button": "#557B97",
      "color_button_text": "#fff",
      "color_small_button_text_border": "#3d4246",
      "color_text_field": "#fff",
      "color_text_field_text": "#000",
      "color_text_field_border": "#949494",
      "color_image_overlay_text": "#fff",
      "color_image_overlay": "#3d4246",
      "image_overlay_opacity": 40,
      "color_body_bg": "#fff",
      "type_header_font": "work_sans_n6",
      "type_header_base_size": 26,
      "type_base_font": "work_sans_n4",
      "type_base_size": 16,
      "type_bold_product_titles": false,
      "share_facebook": true,
      "share_twitter": true,
      "share_pinterest": true,
      "sections": {
        "header": {
          "type": "header",
          "settings": {}
        },
        "hero": {
          "type": "hero",
          "settings": {
            "text_size": "large"
          }
        },
        "slideshow": {
          "type": "slideshow",
          "blocks": {
            "slideshow-0": {
              "type": "image",
              "settings": {}
            },
            "slideshow-1": {
              "type": "image",
              "settings": {}
            }
          },
          "block_order": [
            "slideshow-0",
            "slideshow-1"
          ],
          "settings": {}
        },
        "featured-collections": {
          "type": "collection",
          "settings": {
            "collection": "frontpage"
          }
        },
        "feature-row": {
          "type": "feature-row",
          "settings": {}
        },
        "footer": {
          "type": "footer",
          "blocks": {
            "link_list": {
              "type": "link_list",
              "settings": {}
            },
            "text": {
              "type": "text",
              "settings": {}
            },
            "newsletter": {
              "type": "newsletter",
              "settings": {}
            }
          },
          "block_order": [
            "link_list",
            "text",
            "newsletter"
          ],
          "settings": {}
        }
      },
      "content_for_index": [
        "hero",
        "featured-collections",
        "feature-row",
        "slideshow"
      ]
    },
    "Light": {
      "color_text": "#162950",
      "color_body_text": "#6d6d6d",
      "color_sale_text": "#DA2F0C",
      "color_borders": "#e4e4e4",
      "color_button": "#DA2F0C",
      "color_button_text": "#ffffff",
      "color_small_button_text_border": "#162950",
      "color_text_field": "#ffffff",
      "color_text_field_text": "#162950",
      "color_text_field_border": "#909090",
      "color_image_overlay_text": "#ffffff",
      "color_image_overlay": "#3d3d3d",
      "image_overlay_opacity": 40,
      "color_body_bg": "#f8f8f8",
      "type_header_font": "muli_n6",
      "type_header_base_size": 26,
      "type_base_font": "muli_n4",
      "type_base_size": 18,
      "type_bold_product_titles": true,
      "share_facebook": true,
      "share_twitter": true,
      "share_pinterest": true,
      "social_twitter_link": "",
      "social_facebook_link": "",
      "social_pinterest_link": "",
      "social_instagram_link": "",
      "social_tumblr_link": "",
      "social_snapchat_link": "",
      "social_youtube_link": "",
      "social_vimeo_link": "",
      "favicon": "",
      "checkout_header_image": "",
      "checkout_logo_image": "",
      "checkout_logo_position": "left",
      "checkout_logo_size": "small",
      "checkout_body_background_image": "",
      "checkout_body_background_color": "#ffffff",
      "checkout_input_background_color_mode": "white",
      "checkout_sidebar_background_image": "",
      "checkout_sidebar_background_color": "#e8f3f6",
      "checkout_heading_font": "Roboto",
      "checkout_body_font": "Source Sans Pro",
      "checkout_accent_color": "#1990c6",
      "checkout_button_color": "#23314e",
      "checkout_error_color": "#ff6d6d",
      "sections": {
        "header": {
          "type": "header",
          "settings": {
            "main_linklist": "main-menu",
            "mobile_linklist": "mobile-menu"
          }
        },
        "hero": {
          "type": "hero",
          "settings": {
            "text_size": "large"
          }
        },
        "slideshow": {
          "type": "slideshow",
          "blocks": {
            "slideshow-0": {
              "type": "image",
              "settings": {
                "image": "",
                "alignment": "center center"
              }
            },
            "1492095993817": {
              "type": "image",
              "settings": {
                "image": "",
                "alignment": "center"
              }
            }
          },
          "block_order": [
            "slideshow-0",
            "1492095993817"
          ],
          "settings": {
            "slideshow_height": "medium",
            "text_size": "medium",
            "autorotate": false,
            "autorotate_speed": 5
          }
        },
        "featured-collections": {
          "type": "collection",
          "settings": {}
        },
        "product-template": {
          "type": "product-template",
          "settings": {}
        },
        "collection-template": {
          "type": "collection-template",
          "settings": {}
        },
        "1492096252560": {
          "type": "collection-list",
          "blocks": {
            "1492096252560-0": {
              "type": "featured_collection",
              "settings": {}
            },
            "1492096252560-1": {
              "type": "featured_collection",
              "settings": {}
            },
            "1492096252560-2": {
              "type": "featured_collection",
              "settings": {}
            }
          },
          "block_order": [
            "1492096252560-0",
            "1492096252560-1",
            "1492096252560-2"
          ],
          "settings": {}
        },
        "cart-template": {
          "type": "cart-template",
          "settings": {
            "cart_notes_enable": false
          }
        },
        "footer": {
          "type": "footer",
          "blocks": {
            "link_list": {
              "type": "link_list",
              "settings": {}
            },
            "text": {
              "type": "text",
              "settings": {}
            },
            "newsletter": {
              "type": "newsletter",
              "settings": {}
            }
          },
          "block_order": [
            "link_list",
            "text",
            "newsletter"
          ],
          "settings": {}
        }
      },
      "content_for_index": [
        "hero",
        "featured-collections",
        "slideshow",
        "1492096252560"
      ]
    }
  }
}